{

    "builders": [
        {
            "access_key": "{{user `aws_access_key`}}",
            "secret_key": "{{user `aws_secret_key`}}",
            "ami_name": "Cancel-{{timestamp}}",
            "instance_type": "t2.micro",
            "region": "{{user `aws_region`}}",
            "source_ami": "ami-0b5a47f8865280111",
            "ssh_username": "ec2-user",
            "type": "amazon-ebs"
        }
    ],
    "provisioners": [
        {
			"type": "shell",
			"environment_vars": [
				"AWS_ACCESS_KEY={{user `aws_access_key`}}",
				"AWS_SECRET_KEY={{user `aws_secret_key`}}", 			
				"AWS_REGION={{user `aws_region`}}"
			],
           "script": "packer/init_cancel.sh"
        }
    ],
    "post-processors":[
       {
           "type": "manifest",
           "output": "packer/cancel.json",
           "strip_path": true
       }
    ]
}
