{
    "builders": [
        {
            "access_key": "{{user `aws_access_key`}}",
            "secret_key": "{{user `aws_secret_key`}}",
            "ami_name": "ICS-{{timestamp}}",
            "instance_type": "t2.micro",
            "region": "{{user `aws_region`}}",
            "source_ami": "ami-03b6f27628a4569c8",
            "ssh_username": "ubuntu",
            "type": "amazon-ebs"
        }
    ],
    "provisioners": [
        {
			"type": "shell",
			"environment_vars": [
				"AWS_ACCESS_KEY={{user `aws_access_key`}}",
				"AWS_SECRET_KEY={{user `aws_secret_key`}}", 			
				"AWS_REGION={{user `aws_region`}}"
			],
			"script": "packer/init_ics.sh"
        }
    ],
    "post-processors":[
       {
           "type": "manifest",
           "output": "packer/ics.json",
           "strip_path": true
       }
    ]
}
